<?xml version="1.0" encoding="utf-8"?>
<!-- Generator: Adobe Illustrator 17.0.0, SVG Export Plug-In . SVG Version: 6.00 Build 0)  -->
<!DOCTYPE svg PUBLIC "-//W3C//DTD SVG 1.1//EN" "http://www.w3.org/Graphics/SVG/1.1/DTD/svg11.dtd">
<svg version="1.1"
	 id="svg3025" xmlns:dc="http://purl.org/dc/elements/1.1/" xmlns:cc="http://creativecommons.org/ns#" xmlns:rdf="http://www.w3.org/1999/02/22-rdf-syntax-ns#" xmlns:inkscape="http://www.inkscape.org/namespaces/inkscape" xmlns:sodipodi="http://sodipodi.sourceforge.net/DTD/sodipodi-0.dtd" xmlns:svg="http://www.w3.org/2000/svg" inkscape:version="0.48.3.1 r9886" sodipodi:docname="cog_font_awesome.svg"
	 xmlns="http://www.w3.org/2000/svg" xmlns:xlink="http://www.w3.org/1999/xlink" x="0px" y="0px" width="24.24px" height="24.24px"
	 viewBox="283.358 303.627 24.24 24.24" enable-background="new 283.358 303.627 24.24 24.24" xml:space="preserve">
<sodipodi:namedview  bordercolor="#666666" inkscape:cx="896" inkscape:cy="896" inkscape:zoom="0.13169643" showgrid="false" guidetolerance="10" objecttolerance="10" gridtolerance="10" pagecolor="#ffffff" borderopacity="1" id="namedview3031" inkscape:current-layer="svg3025" inkscape:window-maximized="0" inkscape:window-y="25" inkscape:window-x="0" inkscape:window-height="480" inkscape:window-width="640" inkscape:pageopacity="0" inkscape:pageshadow="2">
	</sodipodi:namedview>
<g id="g3027" transform="matrix(1,0,0,-1,121.49153,1285.4237)">
	<path id="path3029" inkscape:connector-curvature="0" fill="#FFFFFF" d="M178.026,969.677l-1.184,2.856l-2.856,1.184l-2.856-1.184
		l-1.184-2.856l1.184-2.856l2.856-1.184l2.856,1.184L178.026,969.677L178.026,969.677z M186.106,971.397l-0.126-3.866l-3.235-0.647
		l-0.615-1.436l1.846-2.572l-3.188-3.188l-2.588,1.846l-1.436-0.6l-0.458-2.935l-0.568-0.442l-3.89,0.134l-0.623,3.243l-1.42,0.584
		l-2.62-1.831l-3.109,3.188l1.783,2.525l-0.647,1.562l-3.219,0.623v4.237l3.235,0.647l0.615,1.452l-1.846,2.557l3.188,3.188
		l2.588-1.846l1.436,0.6l0.458,2.935l0.568,0.442l3.89-0.134l0.623-3.243l1.42-0.584l2.62,1.831l3.109-3.188l-1.783-2.525
		l0.647-1.547l3.219-0.639L186.106,971.397L186.106,971.397z"/>
</g>
</svg>
