<?xml version="1.0" encoding="utf-8"?>
<!-- Generator: Adobe Illustrator 17.0.0, SVG Export Plug-In . SVG Version: 6.00 Build 0)  -->
<!DOCTYPE svg PUBLIC "-//W3C//DTD SVG 1.1//EN" "http://www.w3.org/Graphics/SVG/1.1/DTD/svg11.dtd">
<svg version="1.1" id="Layer_1" xmlns="http://www.w3.org/2000/svg" xmlns:xlink="http://www.w3.org/1999/xlink" x="0px" y="0px"
	 width="30.262px" height="28.781px" viewBox="0 0 30.262 28.781" enable-background="new 0 0 30.262 28.781" xml:space="preserve">
<polygon fill="#F0C419" points="15.131,0 19.807,9.474 30.262,10.993 22.697,18.368 24.483,28.781 15.131,23.865 5.78,28.781 
	7.566,18.368 0,10.993 10.455,9.474 "/>
</svg>
